## Interface: 11302
## Author: cqwrteur
## Title: LookingForGroup Hook
## Version: @project-version@
## Dependencies: LookingForGroup

#@no-lib-strip@
Libs\AceHook-3.0\AceHook-3.0.xml
#@end-no-lib-strip@

QuestObjectiveFindGroupButtonTemplate.xml
Core.lua

