## Interface: 11302
## Author: cqwrteur
## Title: LookingForGroup Settings
## Version: @project-version@
## LoadOnDemand: 1
## Dependencies: LookingForGroup_Options

settings.lua
auto.lua
background.lua
rf.lua
sf.lua
sort.lua