## Interface: 11302
## Author: cqwrteur
## Title: LookingForGroup Icon
## Version: @project-version@
## SavedVariablesPerCharacter: LookingForGroup_IconCharacterDB
## Dependencies: LookingForGroup_Broker

#@no-lib-strip@
Libs\LibDBIcon-1.0\lib.xml
#@end-no-lib-strip@

Core.lua