## Interface: 11302
## Author: cqwrteur
## Title: LookingForGroup Broker
## Version: @project-version@
## Dependencies: LookingForGroup

#@no-lib-strip@
Libs\LibDataBroker-1.1\LibDataBroker-1.1.lua
#@end-no-lib-strip@

Core.lua
